{
    "env_name": "SpaceInvaders-v0",
    "q_estimator_type": 4,
    "optimizer": "RMSprop",
    "state_size": 28224,
    "num_frames_per_step": 4,
    "action_size": 6,
    "use_target_network": true,
    "use_double_network": false,
    "target_network_update_freq": 1000,
    "negative_reward_value": -50.0,
    "memory_size": 250000,
    "replay_batch_size": 64,
    "train_batch_size": 64,
    "gamma": 0.99,
    "epsilon_initial": 1.0,
    "epsilon_min": 0.1,
    "epsilon_decay_rate": "linear",
    "learning_rate": 0.00025,
    "replay_start_size": 10000,
    "final_exploration_step": 250000
}