{
    "env_name": "SpaceInvaders-v0",
    "q_estimator_type": 2,
    "optimizer": "RMSprop",
    "state_size": 28224,
    "num_frames_per_step": 4,
    "action_size": 6,
    "use_target_network": true,
    "use_double_network": true,
    "target_network_update_freq": 5000,
    "negative_reward_value": -1.0,
    "memory_size": 250000,
    "replay_batch_size": 32,
    "train_batch_size": 32,
    "gamma": 0.99,
    "epsilon_initial": 1.0,
    "epsilon_min": 0.1,
    "epsilon_decay_rate": "linear",
    "learning_rate": 0.00025,
    "replay_start_size": 100000,
    "final_exploration_step": 500000,
    "clipping_rewards": false,
    "stop_episode_after_each_life": true,
    "skip_k_frames": 2
}